Investing 101: A visual and predictive guide for the rookie investor - Wee Kien
…
Users are able to select the individual stock symbol and benchmark index of their choice. The following code chunk utilizes the tidyquant package to extract stock data from Yahoo Finance. Depending on the period_type specified by users before, the periodicity can be changed.

ticker_selected <- "AAPL" 

ticker_data_daily <- tq_get(ticker_selected,
               get = "stock.prices",
               from = from_date,
               to = to_date) %>%
            tq_transmute(select     = NULL, 
                 mutate_fun = to.period, 
                 period     = period_type)
ticker_data_daily 

# A tibble: 753 x 7
   date        open  high   low close    volume adjusted
   <date>     <dbl> <dbl> <dbl> <dbl>     <dbl>    <dbl>
 1 2016-01-04  25.7  26.3  25.5  26.3 270597600     24.4
 2 2016-01-05  26.4  26.5  25.6  25.7 223164000     23.8
 3 2016-01-06  25.1  25.6  25.0  25.2 273829600     23.3
 4 2016-01-07  24.7  25.0  24.1  24.1 324377600     22.3
 5 2016-01-08  24.6  24.8  24.2  24.2 283192000     22.4
 6 2016-01-11  24.7  24.8  24.3  24.6 198957600     22.8
 7 2016-01-12  25.1  25.2  24.7  25.0 196616800     23.1
 8 2016-01-13  25.1  25.3  24.3  24.3 249758400     22.5
 9 2016-01-14  24.5  25.1  23.9  24.9 252680400     23.0
10 2016-01-15  24.0  24.4  23.8  24.3 319335600     22.5
# ... with 743 more rows

# Benchmark Index
benchmark_selected <- "XLK"

benchmark_data_daily <- tq_get(benchmark_selected,
               get = "stock.prices",
               from = from_date,
               to = to_date) %>%
              tq_transmute(select     = NULL, 
                 mutate_fun = to.period, 
                 period     = period_type)
benchmark_data_daily

# A tibble: 753 x 7
   date        open  high   low close   volume adjusted
   <date>     <dbl> <dbl> <dbl> <dbl>    <dbl>    <dbl>
 1 2016-01-04  42.1  42.3  41.6  42.3 21638600     39.2
 2 2016-01-05  42.4  42.5  42.0  42.2 16067200     39.1
 3 2016-01-06  41.5  41.9  41.4  41.6 13858400     38.6
 4 2016-01-07  40.8  41.3  40.4  40.4 16840700     37.5
 5 2016-01-08  40.8  40.9  40.0  40.1 19233100     37.2
 6 2016-01-11  40.4  40.5  39.8  40.3 19135100     37.4
 7 2016-01-12  40.8  40.9  40.3  40.8 15841600     37.9
 8 2016-01-13  41.1  41.1  39.7  39.7 21962300     36.8
 9 2016-01-14  39.9  40.8  39.4  40.5 19795600     37.5
10 2016-01-15  39.2  39.7  38.9  39.3 20177800     36.5
# ... with 743 more rows
…
