Investing 101: A visual and predictive guide for the rookie investor - Yi Heen
…
3.4 Time Series Forecasting

Before we go into time series forecasting proper. We will need to further breakdown the data into a training dataset to build the model and a testing dataset which will be used to determine the efficacy of the model. For the purposes of this paper, we will use 3 months worth of data for the testing dataset but this can be changed. This can be changed by the user but this in turn will affect the model outputs in terms of accuracy and amount of data available for training the models.

The following code chunk is then used to create the training and testing sets.

# A tibble: 694 x 42
   date       adjusted date_index.num date_year date_half date_quarter
   <date>        <dbl>          <dbl>     <dbl>     <int>        <int>
 1 2018-01-02     41.4          -1.73     -1.15         1            1
 2 2018-01-03     41.4          -1.72     -1.15         1            1
 3 2018-01-04     41.6          -1.72     -1.15         1            1
 4 2018-01-05     42.0          -1.72     -1.15         1            1
 5 2018-01-08     41.9          -1.71     -1.15         1            1
 6 2018-01-09     41.9          -1.70     -1.15         1            1
 7 2018-01-10     41.9          -1.70     -1.15         1            1
 8 2018-01-11     42.1          -1.70     -1.15         1            1
 9 2018-01-12     42.5          -1.69     -1.15         1            1
10 2018-01-16     42.3          -1.68     -1.15         1            1
# ... with 684 more rows, and 36 more variables: date_month <int>,
#   date_day <int>, date_hour <int>, date_minute <int>,
#   date_second <int>, date_hour12 <int>, date_am.pm <int>,
#   date_wday <int>, date_mday <int>, date_qday <int>,
#   date_yday <int>, date_mweek <int>, date_week <int>,
#   date_week2 <int>, date_week3 <int>, date_week4 <int>,
#   date_mday7 <int>, date_month.lbl_01 <dbl>,
#   date_month.lbl_02 <dbl>, date_month.lbl_03 <dbl>,
#   date_month.lbl_04 <dbl>, date_month.lbl_05 <dbl>,
…
